FUEL CELL
…
## # A tibble: 6 x 1
##    fuel
##   <int>
## 1   323
## 2   340
## 3   296
## 4   217
## 5   265
## 6   337

fuel = fuel %>% mutate(time = seq(1,length(fuel)))
fuel

## # A tibble: 52 x 2
##     fuel  time
##    <int> <int>
##  1   323     1
##  2   340     2
##  3   296     3
##  4   217     4
##  5   265     5
##  6   337     6
##  7   326     7
##  8   284     8
##  9   276     9
## 10   294    10
## # ... with 42 more rows
…
